#VRML V1.0 ascii
Separator {
MaterialBinding {
value PER_FACE_INDEXED
}
Material {
ambientColor [
 0.101961 0.101961 0.101961, 0.101961 0.101961 0.101961, 0.101961 0.101961 0.101961, 0.101961 0.101961 0.101961, 0.101961 0.101961 0.101961,
 0.101961 0.101961 0.101961, 0.101961 0.101961 0.101961, 0.101961 0.101961 0.101961, 0.101961 0.101961 0.101961, 0.298039 0.298039 0.298039,
 0.298039 0.298039 0.298039, 0.101961 0.101961 0.101961, 0.101961 0.101961 0.101961, 0.101961 0.101961 0.101961, 0.101961 0.101961 0.101961,
 0.101961 0.101961 0.101961, 0.101961 0.101961 0.101961, 0.101961 0.101961 0.101961, 0.101961 0.101961 0.101961
]
diffuseColor [
 0.101961 0.101961 0.101961, 0.101961 0.101961 0.101961, 0.101961 0.101961 0.101961, 0.101961 0.101961 0.101961, 0.101961 0.101961 0.101961,
 0.101961 0.101961 0.101961, 0.101961 0.101961 0.101961, 0.101961 0.101961 0.101961, 0.101961 0.101961 0.101961, 0.298039 0.298039 0.298039,
 0.298039 0.298039 0.298039, 0.101961 0.101961 0.101961, 0.101961 0.101961 0.101961, 0.101961 0.101961 0.101961, 0.101961 0.101961 0.101961,
 0.101961 0.101961 0.101961, 0.101961 0.101961 0.101961, 0.101961 0.101961 0.101961, 0.101961 0.101961 0.101961
]
emissiveColor [
 0.000000 0.000000 0.000000, 0.000000 0.000000 0.000000, 0.000000 0.000000 0.000000, 0.000000 0.000000 0.000000, 0.000000 0.000000 0.000000,
 0.000000 0.000000 0.000000, 0.000000 0.000000 0.000000, 0.000000 0.000000 0.000000, 0.000000 0.000000 0.000000, 0.000000 0.000000 0.000000,
 0.000000 0.000000 0.000000, 0.000000 0.000000 0.000000, 0.000000 0.000000 0.000000, 0.000000 0.000000 0.000000, 0.000000 0.000000 0.000000,
 0.000000 0.000000 0.000000, 0.000000 0.000000 0.000000, 0.000000 0.000000 0.000000, 0.000000 0.000000 0.000000
]
specularColor [
 0.040784 0.040784 0.040784, 0.040784 0.040784 0.040784, 0.040784 0.040784 0.040784, 0.040784 0.040784 0.040784, 0.040784 0.040784 0.040784,
 0.040784 0.040784 0.040784, 0.040784 0.040784 0.040784, 0.040784 0.040784 0.040784, 0.040784 0.040784 0.040784, 0.149020 0.149020 0.149020,
 0.149020 0.149020 0.149020, 0.040784 0.040784 0.040784, 0.040784 0.040784 0.040784, 0.040784 0.040784 0.040784, 0.040784 0.040784 0.040784,
 0.040784 0.040784 0.040784, 0.040784 0.040784 0.040784, 0.040784 0.040784 0.040784, 0.040784 0.040784 0.040784
]
shininess [
 0.400000, 0.400000, 0.400000, 0.400000, 0.400000, 0.400000, 0.400000, 0.400000, 0.400000, 0.400000,
 0.400000, 0.400000, 0.400000, 0.400000, 0.400000, 0.400000, 0.400000, 0.400000, 0.400000
]
transparency [
 0.000000, 0.000000, 0.000000, 0.000000, 0.000000, 0.000000, 0.000000, 0.000000, 0.000000, 0.000000,
 0.000000, 0.000000, 0.000000, 0.000000, 0.000000, 0.000000, 0.000000, 0.000000, 0.000000
]
}
Coordinate3 {
point [
 -0.035728 -0.011826 0.000000, -0.035728 -0.011826 0.001000, -0.035728 -0.011826 0.004000, -0.035728 -0.011826 0.014000, -0.035728 -0.011826 0.017000,
 -0.035728 -0.011826 0.018000, -0.035728 -0.009380 0.017000, -0.035728 -0.008892 0.001000, -0.035728 -0.003451 0.001000, -0.035728 -0.003451 0.017000,
 -0.035726 -0.008887 0.000932, -0.035726 -0.009374 0.017069, -0.035720 -0.003457 0.000869, -0.035720 -0.003457 0.017131, -0.035719 -0.009359 0.017136,
 -0.035714 -0.008866 0.000834, -0.035694 -0.009305 0.017259, -0.035694 -0.008829 0.000741, -0.035694 -0.003472 0.000741, -0.035694 -0.003472 0.017259,
 -0.035652 -0.003497 0.000617, -0.035652 -0.003497 0.017383, -0.035650 -0.008749 0.000612, -0.035650 -0.009210 0.017389, -0.035594 -0.009098 0.017500,
 -0.035594 -0.008653 0.000500, -0.035594 -0.003532 0.000500, -0.035594 -0.003532 0.017500, -0.035541 -0.013250 0.000000, -0.035541 -0.013250 0.004000,
 -0.035541 -0.013250 0.014000, -0.035541 -0.013250 0.018000, -0.035541 -0.010403 0.000000, -0.035541 -0.010403 0.001000, -0.035541 -0.010403 0.004000,
 -0.035541 -0.010403 0.014000, -0.035541 -0.010403 0.017000, -0.035541 -0.010403 0.018000, -0.035522 -0.003575 0.000391, -0.035522 -0.003575 0.017609,
 -0.035435 -0.008806 0.017707, -0.035435 -0.008399 0.000293, -0.035435 -0.003627 0.000293, -0.035435 -0.003627 0.017707, -0.035228 -0.008474 0.017866,
 -0.035228 -0.008103 0.000134, -0.035228 -0.003751 0.000134, -0.035228 -0.003751 0.017866, -0.035010 -0.008170 0.017000, -0.035010 -0.008170 0.017959,
 -0.034991 -0.014576 0.000000, -0.034991 -0.014576 0.004000, -0.034991 -0.014576 0.014000, -0.034991 -0.014576 0.018000, -0.034991 -0.009076 0.000000,
 -0.034991 -0.009076 0.001000, -0.034991 -0.009076 0.004000, -0.034991 -0.009076 0.014000, -0.034991 -0.009076 0.017000, -0.034991 -0.009076 0.018000,
 -0.034987 -0.003896 0.000034, -0.034987 -0.003896 0.017966, -0.034986 -0.008141 0.017963, -0.034984 -0.007801 0.000041, -0.034928 -0.007731 0.000020,
 -0.034928 -0.007731 0.001000, -0.034728 -0.007828 0.018000, -0.034728 -0.007512 0.000000, -0.034728 -0.004051 0.000000, -0.034728 -0.004051 0.018000,
 -0.034117 -0.015715 0.000000, -0.034117 -0.015715 0.004000, -0.034117 -0.015715 0.014000, -0.034117 -0.015715 0.018000, -0.034117 -0.007937 0.000000,
 -0.034117 -0.007937 0.001000, -0.034117 -0.007937 0.004000, -0.034117 -0.007937 0.014000, -0.034117 -0.007937 0.017000, -0.034117 -0.007937 0.018000,
 -0.033955 -0.007099 0.017000, -0.033955 -0.007099 0.018000, -0.033808 -0.006722 0.000000, -0.033808 -0.006722 0.001000, -0.032978 -0.016589 0.000000,
 -0.032978 -0.016589 0.004000, -0.032978 -0.016589 0.014000, -0.032978 -0.016589 0.018000, -0.032978 -0.007063 0.000000, -0.032978 -0.007063 0.001000,
 -0.032978 -0.007063 0.004000, -0.032978 -0.007063 0.014000, -0.032978 -0.007063 0.017000, -0.032978 -0.007063 0.018000, -0.032666 -0.006323 0.017000,
 -0.032666 -0.006323 0.018000, -0.032477 -0.006012 0.000000, -0.032477 -0.006012 0.001000, -0.031652 -0.017139 0.000000, -0.031652 -0.017139 0.004000,
 -0.031652 -0.017139 0.014000, -0.031652 -0.017139 0.018000, -0.031652 -0.006514 0.000000, -0.031652 -0.006514 0.001000, -0.031652 -0.006514 0.004000,
 -0.031652 -0.006514 0.014000, -0.031652 -0.006514 0.017000, -0.031652 -0.006514 0.018000, -0.031226 -0.005890 0.017000, -0.031226 -0.005890 0.018000,
 -0.031015 -0.005642 0.000000, -0.031015 -0.005642 0.001000, -0.030228 -0.017326 0.000000, -0.030228 -0.017326 0.004000, -0.030228 -0.017326 0.014000,
 -0.030228 -0.017326 0.018000, -0.030228 -0.006326 0.000000, -0.030228 -0.006326 0.001000, -0.030228 -0.006326 0.004000, -0.030228 -0.006326 0.014000,
 -0.030228 -0.006326 0.017000, -0.030228 -0.006326 0.018000, -0.029723 -0.005828 0.017000, -0.029723 -0.005828 0.018000, -0.029507 -0.005634 0.000000,
 -0.029507 -0.005634 0.001000, -0.028805 -0.017139 0.000000, -0.028805 -0.017139 0.004000, -0.028805 -0.017139 0.014000, -0.028805 -0.017139 0.018000,
 -0.028805 -0.006514 0.000000, -0.028805 -0.006514 0.001000, -0.028805 -0.006514 0.004000, -0.028805 -0.006514 0.014000, -0.028805 -0.006514 0.017000,
 -0.028805 -0.006514 0.018000, -0.028252 -0.006140 0.017000, -0.028252 -0.006140 0.018000, -0.028042 -0.005988 0.000000, -0.028042 -0.005988 0.001000,
 -0.027478 -0.016589 0.000000, -0.027478 -0.016589 0.004000, -0.027478 -0.016589 0.014000, -0.027478 -0.016589 0.018000, -0.027478 -0.007063 0.000000,
 -0.027478 -0.007063 0.001000, -0.027478 -0.007063 0.004000, -0.027478 -0.007063 0.014000, -0.027478 -0.007063 0.017000, -0.027478 -0.007063 0.018000,
 -0.026904 -0.006808 0.017000, -0.026904 -0.006808 0.018000, -0.026704 -0.006684 0.000000, -0.026704 -0.006684 0.001000, -0.026339 -0.015715 0.000000,
 -0.026339 -0.015715 0.004000, -0.026339 -0.015715 0.014000, -0.026339 -0.015715 0.018000, -0.026339 -0.007937 0.000000, -0.026339 -0.007937 0.001000,
 -0.026339 -0.007937 0.004000, -0.026339 -0.007937 0.014000, -0.026339 -0.007937 0.017000, -0.026339 -0.007937 0.018000, -0.025868 0.001811 0.001000,
 -0.025868 0.001811 0.017000, -0.025852 0.001791 0.000777, -0.025852 0.001791 0.017223, -0.025844 0.001781 0.000742, -0.025844 0.001781 0.017258,
 -0.025805 0.001732 0.000566, -0.025805 0.001732 0.017434, -0.025779 0.001701 0.000503, -0.025779 0.001701 0.017497, -0.025764 -0.007789 0.017000,
 -0.025764 -0.007789 0.018000, -0.025728 0.001638 0.000377, -0.025728 0.001638 0.017623, -0.025681 0.001579 0.000293, -0.025678 0.001575 0.017703,
 -0.025627 0.001512 0.017782, -0.025624 0.001508 0.000225, -0.025572 -0.007681 0.000000, -0.025572 -0.007681 0.001000, -0.025548 0.001415 0.000134,
 -0.025546 0.001412 0.017861, -0.025506 0.001362 0.017901, -0.025504 0.001360 0.000105, -0.025465 -0.014576 0.000000, -0.025465 -0.014576 0.004000,
 -0.025465 -0.014576 0.014000, -0.025465 -0.014576 0.018000, -0.025465 -0.009076 0.000000, -0.025465 -0.009076 0.001000, -0.025465 -0.009076 0.004000,
 -0.025465 -0.009076 0.014000, -0.025465 -0.009076 0.017000, -0.025465 -0.009076 0.018000, -0.025394 0.001223 0.000034, -0.025393 0.001223 0.017963,
 -0.025371 0.001195 0.017975, -0.025371 0.001194 0.000029, -0.025229 0.001018 0.000000, -0.025229 0.001018 0.018000, -0.024916 -0.013250 0.000000,
 -0.024916 -0.013250 0.004000, -0.024916 -0.013250 0.014000, -0.024916 -0.013250 0.018000, -0.024916 -0.010403 0.000000, -0.024916 -0.010403 0.001000,
 -0.024916 -0.010403 0.004000, -0.024916 -0.010403 0.014000, -0.024916 -0.010403 0.017000, -0.024916 -0.010403 0.018000, -0.024902 -0.009022 0.017000,
 -0.024902 -0.009022 0.018000, -0.024728 -0.011826 0.000000, -0.024728 -0.011826 0.001000, -0.024728 -0.011826 0.004000, -0.024728 -0.011826 0.014000,
 -0.024728 -0.011826 0.017000, -0.024728 -0.011826 0.018000, -0.024713 -0.008920 0.000000, -0.024713 -0.008920 0.001000, -0.024373 -0.010430 0.017000,
 -0.024373 -0.010430 0.018000, -0.024292 -0.010826 0.018000, -0.024272 -0.010957 0.017991, -0.024254 -0.011085 0.017966, -0.024240 -0.011209 0.017924,
 -0.024229 -0.011326 0.017866, -0.024221 -0.011435 0.017793, -0.024216 -0.011533 0.017707, -0.024212 -0.011620 0.017609, -0.024210 -0.011692 0.017500,
 -0.024209 -0.011750 0.017383, -0.024209 -0.011792 0.017259, -0.024209 -0.011826 0.017000, -0.024209 -0.011818 0.017131, -0.024177 -0.010329 0.000000,
 -0.024177 -0.010329 0.001000, -0.024075 -0.010826 0.000000, -0.024055 -0.010957 0.000009, -0.024038 -0.011085 0.000034, -0.024025 -0.011209 0.000076,
 -0.024014 -0.011326 0.000134, -0.024007 -0.011435 0.000206, -0.024001 -0.011533 0.000293, -0.023998 -0.011619 0.000391, -0.023996 -0.011692 0.000500,
 -0.023995 -0.011750 0.000617, -0.023994 -0.011792 0.000741, -0.023994 -0.011826 0.001000, -0.023994 -0.011818 0.000870, -0.018237 0.010801 0.001000,
 -0.018237 0.010801 0.017000, -0.018215 0.010782 0.000778, -0.018215 0.010782 0.017222, -0.018211 0.010779 0.000741, -0.018211 0.010779 0.017259,
 -0.018157 0.010733 0.000569, -0.018157 0.010733 0.017431, -0.018135 0.010714 0.000500, -0.018135 0.010714 0.017500, -0.018066 0.010656 0.000382,
 -0.018066 0.010656 0.017618, -0.018014 0.010612 0.000293, -0.018014 0.010612 0.017707, -0.017947 0.010554 0.000225, -0.017947 0.010554 0.017775,
 -0.017923 0.011099 0.001000, -0.017923 0.011099 0.017000, -0.017903 0.011072 0.000741, -0.017903 0.011072 0.017259, -0.017856 0.010478 0.000134,
 -0.017856 0.010478 0.017866, -0.017842 0.010992 0.000500, -0.017842 0.010992 0.017500, -0.017804 0.010433 0.000105, -0.017804 0.010433 0.017895,
 -0.017746 0.010866 0.000293, -0.017746 0.010866 0.017707, -0.017672 0.010321 0.000034, -0.017672 0.010321 0.017966, -0.017644 0.010298 0.000029,
 -0.017644 0.010298 0.017971, -0.017621 0.010701 0.000134, -0.017621 0.010701 0.017866, -0.017553 0.011322 0.001000, -0.017553 0.011322 0.017000,
 -0.017538 0.011291 0.000741, -0.017538 0.011291 0.017259, -0.017496 0.011200 0.000500, -0.017496 0.011200 0.017500, -0.017475 0.010154 0.000000,
 -0.017475 0.010154 0.018000, -0.017475 0.010509 0.000034, -0.017475 0.010509 0.017966, -0.017430 0.011056 0.000293, -0.017430 0.011056 0.017707,
 -0.017343 0.010868 0.000134, -0.017343 0.010868 0.017866, -0.017318 0.010303 0.000000, -0.017318 0.010303 0.018000, -0.017241 0.010649 0.000034,
 -0.017241 0.010649 0.017966, -0.017143 0.011460 0.001000, -0.017143 0.011460 0.017000, -0.017135 0.011427 0.000741, -0.017135 0.011427 0.017259,
 -0.017133 0.010414 0.000000, -0.017133 0.010414 0.018000, -0.017114 0.011329 0.000500, -0.017114 0.011329 0.017500, -0.017080 0.011174 0.000293,
 -0.017080 0.011174 0.017707, -0.017035 0.010972 0.000134, -0.017035 0.010972 0.017866, -0.016983 0.010736 0.000034, -0.016983 0.010736 0.017966,
 -0.016928 0.010483 0.000000, -0.016928 0.010483 0.018000, -0.016713 0.010507 0.000000, -0.016713 0.010507 0.018000, -0.016713 0.010766 0.000034,
 -0.016713 0.010766 0.017966, -0.016713 0.011007 0.000134, -0.016713 0.011007 0.017866, -0.016713 0.011214 0.000293, -0.016713 0.011214 0.017707,
 -0.016713 0.011373 0.000500, -0.016713 0.011373 0.017500, -0.016713 0.011473 0.000741, -0.016713 0.011473 0.017259, -0.016713 0.011507 0.001000,
 -0.016713 0.011507 0.017000, 0.013492 0.010507 0.000000, 0.013492 0.010507 0.018000, 0.013492 0.010766 0.000034, 0.013492 0.010766 0.017966,
 0.013492 0.011007 0.000134, 0.013492 0.011007 0.017866, 0.013492 0.011214 0.000293, 0.013492 0.011214 0.017707, 0.013492 0.011373 0.000500,
 0.013492 0.011373 0.017500, 0.013492 0.011473 0.000741, 0.013492 0.011473 0.017259, 0.013492 0.011507 0.001000, 0.013492 0.011507 0.017000,
 0.013548 0.010760 0.000034, 0.013548 0.010760 0.017966, 0.013599 0.010995 0.000134, 0.013599 0.010995 0.017866, 0.013601 0.010742 0.000034,
 0.013601 0.010742 0.017966, 0.013644 0.011198 0.000293, 0.013644 0.011198 0.017707, 0.013649 0.010713 0.000034, 0.013649 0.010713 0.017966,
 0.013678 0.011353 0.000500, 0.013678 0.011353 0.017500, 0.013688 0.010611 0.000029, 0.013689 0.010675 0.000034, 0.013689 0.010675 0.017966,
 0.013699 0.011450 0.000741, 0.013699 0.011450 0.017259, 0.013702 0.010961 0.000134, 0.013702 0.010961 0.017866, 0.013707 0.011484 0.001000,
 0.013707 0.011484 0.017000, 0.013721 0.010629 0.000034, 0.013721 0.010629 0.017966, 0.013788 0.011149 0.000293, 0.013788 0.011149 0.017707,
 0.013794 0.010905 0.000134, 0.013794 0.010905 0.017866, 0.013855 0.011293 0.000500, 0.013855 0.011293 0.017500, 0.013873 0.010831 0.000134,
 0.013873 0.010831 0.017866, 0.013873 0.010710 0.000105, 0.013897 0.011384 0.000741, 0.013897 0.011384 0.017259, 0.013911 0.011415 0.001000,
 0.013911 0.011415 0.017000, 0.013919 0.011071 0.000293, 0.013919 0.011071 0.017707, 0.013933 0.010742 0.000134, 0.013933 0.010742 0.017866,
 0.014015 0.011197 0.000500, 0.014015 0.011197 0.017500, 0.014030 0.010966 0.000293, 0.014030 0.010966 0.017707, 0.014038 0.010798 0.000225,
 0.014076 0.011277 0.000741, 0.014076 0.011277 0.017259, 0.014096 0.011304 0.001000, 0.014096 0.011304 0.017000, 0.014116 0.010840 0.000293,
 0.014116 0.010840 0.017707, 0.014151 0.011069 0.000500, 0.014151 0.011069 0.017500, 0.014176 0.010872 0.000382, 0.014227 0.011134 0.000741,
 0.014227 0.011134 0.017259, 0.014253 0.011156 0.001000, 0.014253 0.011156 0.017000, 0.014256 0.010915 0.000500, 0.014256 0.010915 0.017500,
 0.014281 0.010928 0.000569, 0.014344 0.010962 0.000741, 0.014344 0.010962 0.017259, 0.014349 0.010964 0.000778, 0.014374 0.010978 0.001000,
 0.014374 0.010978 0.017000, 0.018579 0.000975 0.000000, 0.018579 0.000975 0.018000, 0.018732 0.001160 0.000029, 0.018757 0.001191 0.000034,
 0.018757 0.001191 0.017966, 0.018876 0.001335 0.000105, 0.018923 0.001393 0.000134, 0.018923 0.001393 0.017866, 0.019004 0.001492 0.000225,
 0.019065 0.001566 0.000293, 0.019065 0.001566 0.017707, 0.019117 0.001628 0.000377, 0.019125 0.001638 0.017609, 0.019171 0.001695 0.000503,
 0.019175 0.001699 0.017500, 0.019199 0.001728 0.000566, 0.019214 0.001747 0.017383, 0.019241 0.001780 0.000742, 0.019243 0.001782 0.017259,
 0.019249 0.001790 0.000777, 0.019261 0.001804 0.017131, 0.019267 0.001811 0.001000, 0.019267 0.001811 0.017000, 0.024051 -0.011826 0.017000,
 0.024051 -0.011818 0.017130, 0.024051 -0.011792 0.017259, 0.024051 -0.011750 0.017383, 0.024052 -0.011692 0.017500, 0.024054 -0.011619 0.017609,
 0.024058 -0.011533 0.017707, 0.024063 -0.011435 0.017794, 0.024071 -0.011326 0.017866, 0.024081 -0.011209 0.017924, 0.024095 -0.011085 0.017966,
 0.024112 -0.010957 0.017991, 0.024132 -0.010826 0.018000, 0.024235 -0.010323 0.017000, 0.024235 -0.010323 0.018000, 0.024281 -0.011826 0.001000,
 0.024281 -0.011818 0.000869, 0.024281 -0.011792 0.000741, 0.024282 -0.011750 0.000617, 0.024283 -0.011692 0.000500, 0.024285 -0.011620 0.000391,
 0.024288 -0.011533 0.000293, 0.024294 -0.011435 0.000207, 0.024302 -0.011326 0.000134, 0.024313 -0.011209 0.000076, 0.024327 -0.011085 0.000034,
 0.024345 -0.010957 0.000009, 0.024365 -0.010826 0.000000, 0.024448 -0.010424 0.000000, 0.024448 -0.010424 0.001000, 0.024763 -0.011826 0.000000,
 0.024763 -0.011826 0.018000, 0.024763 -0.011826 0.001000, 0.024763 -0.011826 0.004000, 0.024763 -0.011826 0.014000, 0.024763 -0.011826 0.017000,
 0.024778 -0.008909 0.017000, 0.024778 -0.008909 0.018000, 0.024785 -0.011333 0.000000, 0.024785 -0.011333 0.001000, 0.024785 -0.011333 0.004000,
 0.024785 -0.011333 0.014000, 0.024785 -0.011333 0.017000, 0.024785 -0.011333 0.018000, 0.024791 -0.012379 0.000000, 0.024791 -0.012379 0.004000,
 0.024791 -0.012379 0.014000, 0.024791 -0.012379 0.018000, 0.024985 -0.009012 0.000000, 0.024985 -0.009012 0.001000, 0.025071 -0.010010 0.000000,
 0.025071 -0.010010 0.001000, 0.025071 -0.010010 0.004000, 0.025071 -0.010010 0.014000, 0.025071 -0.010010 0.017000, 0.025071 -0.010010 0.018000,
 0.025091 -0.013697 0.000000, 0.025091 -0.013697 0.004000, 0.025091 -0.013697 0.014000, 0.025091 -0.013697 0.018000, 0.025647 -0.007668 0.017000,
 0.025647 -0.007668 0.018000, 0.025672 -0.008797 0.000000, 0.025672 -0.008797 0.001000, 0.025672 -0.008797 0.004000, 0.025672 -0.008797 0.014000,
 0.025672 -0.008797 0.017000, 0.025672 -0.008797 0.018000, 0.025703 -0.014901 0.000000, 0.025703 -0.014901 0.004000, 0.025703 -0.014901 0.014000,
 0.025703 -0.014901 0.018000, 0.025858 -0.007779 0.000000, 0.025858 -0.007779 0.001000, 0.026552 -0.007767 0.000000, 0.026552 -0.007767 0.001000,
 0.026552 -0.007767 0.004000, 0.026552 -0.007767 0.014000, 0.026552 -0.007767 0.017000, 0.026552 -0.007767 0.018000, 0.026590 -0.015920 0.000000,
 0.026590 -0.015920 0.004000, 0.026590 -0.015920 0.014000, 0.026590 -0.015920 0.018000, 0.026791 -0.006675 0.017000, 0.026791 -0.006675 0.018000,
 0.027013 -0.006805 0.000000, 0.027013 -0.006805 0.001000, 0.027656 -0.006983 0.000000, 0.027656 -0.006983 0.001000, 0.027656 -0.006983 0.004000,
 0.027656 -0.006983 0.014000, 0.027656 -0.006983 0.017000, 0.027656 -0.006983 0.018000, 0.027699 -0.016692 0.000000, 0.027699 -0.016692 0.004000,
 0.027699 -0.016692 0.014000, 0.027699 -0.016692 0.018000, 0.028141 -0.005988 0.017000, 0.028141 -0.005988 0.018000, 0.028374 -0.006151 0.000000,
 0.028374 -0.006151 0.001000, 0.028919 -0.006493 0.000000, 0.028919 -0.006493 0.001000, 0.028919 -0.006493 0.004000, 0.028919 -0.006493 0.014000,
 0.028919 -0.006493 0.017000, 0.028919 -0.006493 0.018000, 0.028962 -0.017170 0.000000, 0.028962 -0.017170 0.004000, 0.028962 -0.017170 0.014000,
 0.028962 -0.017170 0.018000, 0.029617 -0.005648 0.017000, 0.029617 -0.005648 0.018000, 0.029856 -0.005859 0.000000, 0.029856 -0.005859 0.001000,
 0.030262 -0.006327 0.000000, 0.030262 -0.006327 0.001000, 0.030262 -0.006327 0.004000, 0.030262 -0.006327 0.014000, 0.030262 -0.006327 0.017000,
 0.030262 -0.006327 0.018000, 0.030304 -0.017326 0.000000, 0.030304 -0.017326 0.004000, 0.030304 -0.017326 0.014000, 0.030304 -0.017326 0.018000,
 0.031131 -0.005676 0.017000, 0.031131 -0.005676 0.018000, 0.031364 -0.005948 0.000000, 0.031364 -0.005948 0.001000, 0.031606 -0.006493 0.000000,
 0.031606 -0.006493 0.001000, 0.031606 -0.006493 0.004000, 0.031606 -0.006493 0.014000, 0.031606 -0.006493 0.017000, 0.031606 -0.006493 0.018000,
 0.031643 -0.017150 0.000000, 0.031643 -0.017150 0.004000, 0.031643 -0.017150 0.014000, 0.031643 -0.017150 0.018000, 0.032594 -0.006069 0.017000,
 0.032594 -0.006069 0.018000, 0.032802 -0.006411 0.000000, 0.032802 -0.006411 0.001000, 0.032869 -0.006983 0.000000, 0.032869 -0.006983 0.001000,
 0.032869 -0.006983 0.004000, 0.032869 -0.006983 0.014000, 0.032869 -0.006983 0.017000, 0.032869 -0.006983 0.018000, 0.032899 -0.016652 0.000000,
 0.032899 -0.016652 0.004000, 0.032899 -0.016652 0.014000, 0.032899 -0.016652 0.018000, 0.033918 -0.006804 0.017000, 0.033918 -0.006804 0.018000,
 0.033973 -0.007767 0.000000, 0.033973 -0.007767 0.001000, 0.033973 -0.007767 0.004000, 0.033973 -0.007767 0.014000, 0.033973 -0.007767 0.017000,
 0.033973 -0.007767 0.018000, 0.033996 -0.015864 0.000000, 0.033996 -0.015864 0.004000, 0.033996 -0.015864 0.014000, 0.033996 -0.015864 0.018000,
 0.034077 -0.007220 0.000000, 0.034077 -0.007220 0.001000, 0.034820 -0.007953 0.000000, 0.034825 -0.007611 0.018000, 0.034852 -0.008797 0.000000,
 0.034852 -0.008797 0.001000, 0.034852 -0.008797 0.004000, 0.034852 -0.008797 0.014000, 0.034852 -0.008797 0.017000, 0.034852 -0.008797 0.018000,
 0.034868 -0.014832 0.000000, 0.034868 -0.014832 0.004000, 0.034868 -0.014832 0.014000, 0.034868 -0.014832 0.018000, 0.034880 -0.003982 0.000000,
 0.034880 -0.003982 0.018000, 0.035025 -0.007838 0.017000, 0.035025 -0.007838 0.017979, 0.035073 -0.008276 0.000039, 0.035077 -0.007906 0.017959,
 0.035110 -0.008323 0.000045, 0.035110 -0.008323 0.001000, 0.035141 -0.003791 0.000034, 0.035141 -0.003791 0.017966, 0.035310 -0.008618 0.000134,
 0.035316 -0.008215 0.017866, 0.035385 -0.003613 0.000134, 0.035385 -0.003613 0.017866, 0.035453 -0.010010 0.000000, 0.035453 -0.010010 0.001000,
 0.035453 -0.010010 0.004000, 0.035453 -0.010010 0.014000, 0.035453 -0.010010 0.017000, 0.035453 -0.010010 0.018000, 0.035462 -0.013618 0.000000,
 0.035462 -0.013618 0.004000, 0.035462 -0.013618 0.014000, 0.035462 -0.013618 0.018000, 0.035512 -0.008961 0.000293, 0.035519 -0.008517 0.017707,
 0.035594 -0.003460 0.000293, 0.035594 -0.003460 0.017707, 0.035615 -0.013086 0.000000, 0.035615 -0.013086 0.004000, 0.035615 -0.013086 0.014000,
 0.035615 -0.013086 0.018000, 0.035667 -0.009264 0.000500, 0.035674 -0.008777 0.017500, 0.035682 -0.003396 0.000391, 0.035682 -0.003396 0.017609,
 0.035720 -0.009380 0.000611, 0.035728 -0.008875 0.017388, 0.035740 -0.011333 0.000000, 0.035740 -0.011333 0.001000, 0.035740 -0.011333 0.004000,
 0.035740 -0.011333 0.014000, 0.035740 -0.011333 0.017000, 0.035740 -0.011333 0.018000, 0.035755 -0.003343 0.000500, 0.035755 -0.003343 0.017500,
 0.035762 -0.011832 0.000000, 0.035762 -0.011832 0.004000, 0.035762 -0.011832 0.014000, 0.035762 -0.011832 0.018000, 0.035762 -0.011826 0.000000,
 0.035762 -0.011826 0.001000, 0.035762 -0.011826 0.004000, 0.035762 -0.011826 0.014000, 0.035762 -0.011826 0.017000, 0.035762 -0.011826 0.018000,
 0.035763 -0.009478 0.000741, 0.035771 -0.008956 0.017259, 0.035787 -0.009535 0.000864, 0.035791 -0.008994 0.017166, 0.035794 -0.009551 0.000931,
 0.035796 -0.009557 0.001000, 0.035802 -0.009016 0.017068, 0.035804 -0.009020 0.017000, 0.035814 -0.003300 0.000617, 0.035814 -0.003300 0.017383,
 0.035856 -0.003269 0.000741, 0.035856 -0.003269 0.017259, 0.035882 -0.003250 0.000869, 0.035882 -0.003250 0.017131, 0.035891 -0.003244 0.001000,
 0.035891 -0.003244 0.017000
]
}
IndexedFaceSet {
coordIndex [
 471, 469, 483, -1, 639, 647, 648, -1, 648, 640, 639, -1,
 639, 640, 616, -1, 639, 616, 615, -1, 615, 616, 602, -1,
 615, 602, 601, -1, 601, 602, 590, -1, 601, 590, 589, -1,
 589, 590, 576, -1, 589, 576, 575, -1, 575, 576, 562, -1,
 575, 562, 561, -1, 561, 562, 548, -1, 561, 548, 547, -1,
 547, 548, 534, -1, 547, 534, 533, -1, 533, 534, 520, -1,
 533, 520, 519, -1, 519, 520, 508, -1, 519, 508, 507, -1,
 507, 508, 496, -1, 507, 496, 495, -1, 495, 496, 484, -1,
 495, 484, 483, -1, 483, 484, 472, -1, 483, 472, 471, -1,
 648, 647, 666, -1, 666, 647, 665, -1, 671, 666, 670, -1,
 670, 666, 665, -1, 670, 665, 669, -1, 204, 216, 217, -1,
 217, 216, 208, -1, 217, 208, 209, -1, 209, 208, 192, -1,
 209, 192, 193, -1, 193, 192, 158, -1, 193, 158, 159, -1,
 159, 158, 144, -1, 159, 144, 145, -1, 145, 144, 130, -1,
 145, 130, 131, -1, 131, 130, 116, -1, 131, 116, 117, -1,
 117, 116, 102, -1, 117, 102, 103, -1, 103, 102, 88, -1,
 103, 88, 89, -1, 89, 88, 74, -1, 89, 74, 75, -1,
 75, 74, 54, -1, 75, 54, 55, -1, 55, 54, 32, -1,
 55, 32, 33, -1, 33, 32, 0, -1, 33, 0, 1, -1,
 1, 0, 28, -1, 1, 28, 2, -1, 2, 28, 29, -1,
 29, 28, 50, -1, 29, 50, 51, -1, 51, 50, 70, -1,
 51, 70, 71, -1, 71, 70, 84, -1, 71, 84, 85, -1,
 85, 84, 98, -1, 85, 98, 99, -1, 99, 98, 112, -1,
 99, 112, 113, -1, 113, 112, 126, -1, 113, 126, 127, -1,
 127, 126, 140, -1, 127, 140, 141, -1, 141, 140, 154, -1,
 141, 154, 155, -1, 155, 154, 188, -1, 155, 188, 189, -1,
 189, 188, 204, -1, 189, 204, 205, -1, 205, 204, 217, -1,
 205, 217, 218, -1, 473, 474, 439, -1, 218, 217, 252, -1,
 473, 439, 472, -1, 218, 252, 219, -1, 220, 219, 237, -1,
 237, 219, 252, -1, 237, 252, 439, -1, 439, 252, 454, -1,
 439, 454, 472, -1, 472, 454, 471, -1, 524, 417, 500, -1,
 500, 417, 476, -1, 476, 417, 453, -1, 453, 417, 226, -1,
 453, 226, 451, -1, 608, 620, 594, -1, 594, 620, 580, -1,
 123, 137, 203, -1, 215, 225, 203, -1, 203, 225, 226, -1,
 203, 226, 295, -1, 524, 538, 417, -1, 417, 538, 552, -1,
 417, 552, 620, -1, 620, 552, 566, -1, 620, 566, 580, -1,
 417, 337, 226, -1, 226, 337, 323, -1, 226, 323, 321, -1,
 66, 81, 69, -1, 69, 81, 95, -1, 69, 95, 203, -1,
 203, 95, 109, -1, 203, 109, 123, -1, 137, 151, 203, -1,
 203, 151, 175, -1, 203, 175, 215, -1, 321, 311, 226, -1,
 226, 311, 303, -1, 226, 303, 295, -1, 689, 671, 680, -1,
 680, 671, 670, -1, 689, 690, 671, -1, 671, 690, 682, -1,
 671, 682, 672, -1, 672, 682, 673, -1, 9, 8, 6, -1,
 6, 8, 7, -1, 7, 1, 2, -1, 7, 2, 6, -1,
 6, 2, 3, -1, 6, 3, 4, -1, 674, 662, 482, -1,
 482, 662, 638, -1, 482, 638, 494, -1, 674, 482, 668, -1,
 668, 482, 470, -1, 668, 470, 650, -1, 650, 470, 486, -1,
 650, 486, 642, -1, 642, 486, 498, -1, 642, 498, 510, -1,
 578, 642, 564, -1, 564, 642, 550, -1, 494, 638, 506, -1,
 506, 638, 614, -1, 506, 614, 600, -1, 546, 532, 560, -1,
 560, 532, 574, -1, 600, 588, 506, -1, 506, 588, 574, -1,
 506, 574, 518, -1, 518, 574, 532, -1, 510, 522, 642, -1,
 642, 522, 536, -1, 642, 536, 550, -1, 578, 592, 642, -1,
 642, 592, 604, -1, 642, 604, 618, -1, 336, 416, 322, -1,
 322, 416, 241, -1, 619, 607, 605, -1, 239, 222, 202, -1,
 202, 222, 182, -1, 202, 182, 152, -1, 68, 202, 110, -1,
 239, 202, 241, -1, 241, 202, 294, -1, 241, 294, 302, -1,
 605, 581, 619, -1, 619, 581, 567, -1, 619, 567, 416, -1,
 567, 553, 416, -1, 416, 553, 539, -1, 416, 539, 525, -1,
 110, 96, 68, -1, 68, 96, 82, -1, 68, 82, 67, -1,
 525, 511, 416, -1, 416, 511, 487, -1, 416, 487, 241, -1,
 241, 487, 467, -1, 241, 467, 466, -1, 152, 138, 202, -1,
 202, 138, 124, -1, 202, 124, 110, -1, 302, 310, 241, -1,
 241, 310, 320, -1, 241, 320, 322, -1, 88, 192, 208, -1,
 140, 88, 154, -1, 154, 88, 188, -1, 140, 126, 88, -1,
 88, 126, 112, -1, 88, 112, 98, -1, 208, 216, 88, -1,
 88, 216, 204, -1, 88, 204, 188, -1, 98, 84, 88, -1,
 88, 84, 70, -1, 88, 70, 74, -1, 74, 70, 54, -1,
 116, 130, 102, -1, 102, 130, 144, -1, 102, 144, 88, -1,
 88, 144, 158, -1, 88, 158, 192, -1, 70, 50, 54, -1,
 54, 50, 28, -1, 54, 28, 32, -1, 32, 28, 0, -1,
 4, 3, 30, -1, 4, 30, 31, -1, 31, 30, 52, -1,
 31, 52, 53, -1, 53, 52, 72, -1, 53, 72, 73, -1,
 73, 72, 86, -1, 73, 86, 87, -1, 87, 86, 100, -1,
 87, 100, 101, -1, 101, 100, 114, -1, 101, 114, 115, -1,
 115, 114, 128, -1, 115, 128, 129, -1, 129, 128, 142, -1,
 129, 142, 143, -1, 143, 142, 156, -1, 143, 156, 157, -1,
 157, 156, 190, -1, 157, 190, 191, -1, 191, 190, 206, -1,
 191, 206, 207, -1, 206, 219, 207, -1, 207, 219, 220, -1,
 207, 220, 221, -1, 221, 220, 212, -1, 221, 212, 213, -1,
 213, 212, 196, -1, 213, 196, 197, -1, 197, 196, 162, -1,
 197, 162, 163, -1, 163, 162, 148, -1, 163, 148, 149, -1,
 149, 148, 134, -1, 149, 134, 135, -1, 135, 134, 120, -1,
 135, 120, 121, -1, 121, 120, 106, -1, 121, 106, 107, -1,
 107, 106, 92, -1, 107, 92, 93, -1, 93, 92, 78, -1,
 93, 78, 79, -1, 79, 78, 58, -1, 79, 58, 59, -1,
 59, 58, 36, -1, 59, 36, 37, -1, 37, 36, 4, -1,
 37, 4, 5, -1, 5, 4, 31, -1, 486, 470, 474, -1,
 641, 649, 650, -1, 650, 642, 641, -1, 641, 642, 618, -1,
 641, 618, 617, -1, 617, 618, 604, -1, 617, 604, 603, -1,
 603, 604, 592, -1, 603, 592, 591, -1, 591, 592, 578, -1,
 591, 578, 577, -1, 577, 578, 564, -1, 577, 564, 563, -1,
 563, 564, 550, -1, 563, 550, 549, -1, 549, 550, 536, -1,
 549, 536, 535, -1, 535, 536, 522, -1, 535, 522, 521, -1,
 521, 522, 510, -1, 521, 510, 509, -1, 509, 510, 498, -1,
 509, 498, 497, -1, 497, 498, 486, -1, 497, 486, 485, -1,
 485, 486, 474, -1, 485, 474, 473, -1, 668, 650, 667, -1,
 667, 650, 649, -1, 674, 668, 673, -1, 673, 668, 667, -1,
 673, 667, 672, -1, 437, 438, 689, -1, 689, 438, 690, -1,
 414, 415, 437, -1, 437, 415, 438, -1, 348, 334, 349, -1,
 349, 334, 335, -1, 164, 165, 254, -1, 254, 165, 255, -1,
 8, 9, 164, -1, 164, 9, 165, -1, 79, 73, 93, -1,
 93, 73, 87, -1, 93, 87, 101, -1, 143, 157, 93, -1,
 93, 157, 191, -1, 93, 191, 207, -1, 37, 5, 31, -1,
 101, 115, 93, -1, 93, 115, 129, -1, 93, 129, 143, -1,
 207, 221, 93, -1, 93, 221, 213, -1, 93, 213, 197, -1,
 79, 59, 73, -1, 73, 59, 37, -1, 73, 37, 53, -1,
 53, 37, 31, -1, 197, 163, 93, -1, 93, 163, 149, -1,
 93, 149, 107, -1, 107, 149, 135, -1, 107, 135, 121, -1,
 633, 657, 489, -1, 489, 657, 477, -1, 657, 669, 477, -1,
 477, 669, 665, -1, 477, 665, 469, -1, 469, 665, 647, -1,
 469, 647, 483, -1, 483, 647, 639, -1, 483, 639, 495, -1,
 633, 489, 609, -1, 609, 489, 501, -1, 609, 501, 513, -1,
 575, 561, 639, -1, 639, 561, 547, -1, 639, 547, 533, -1,
 615, 601, 639, -1, 639, 601, 589, -1, 639, 589, 575, -1,
 533, 519, 639, -1, 639, 519, 507, -1, 639, 507, 495, -1,
 513, 527, 609, -1, 609, 527, 541, -1, 609, 541, 555, -1,
 555, 569, 609, -1, 609, 569, 583, -1, 609, 583, 595, -1,
 477, 469, 471, -1, 658, 670, 669, -1, 471, 478, 477, -1,
 477, 478, 490, -1, 477, 490, 489, -1, 489, 490, 502, -1,
 489, 502, 501, -1, 501, 502, 514, -1, 501, 514, 513, -1,
 513, 514, 528, -1, 513, 528, 527, -1, 527, 528, 542, -1,
 527, 542, 541, -1, 541, 542, 556, -1, 541, 556, 555, -1,
 555, 556, 570, -1, 555, 570, 569, -1, 569, 570, 584, -1,
 569, 584, 583, -1, 583, 584, 596, -1, 583, 596, 595, -1,
 595, 596, 610, -1, 595, 610, 609, -1, 609, 610, 634, -1,
 609, 634, 633, -1, 633, 634, 658, -1, 633, 658, 657, -1,
 657, 658, 669, -1, 670, 658, 680, -1, 680, 658, 634, -1,
 680, 634, 626, -1, 626, 634, 610, -1, 626, 610, 606, -1,
 606, 610, 596, -1, 606, 596, 582, -1, 582, 596, 584, -1,
 582, 584, 568, -1, 568, 584, 570, -1, 568, 570, 554, -1,
 554, 570, 556, -1, 554, 556, 540, -1, 540, 556, 542, -1,
 540, 542, 526, -1, 526, 542, 528, -1, 526, 528, 512, -1,
 512, 528, 514, -1, 512, 514, 488, -1, 488, 514, 502, -1,
 488, 502, 468, -1, 468, 502, 490, -1, 468, 490, 454, -1,
 454, 490, 478, -1, 454, 478, 471, -1, 679, 680, 626, -1,
 465, 466, 468, -1, 465, 468, 464, -1, 468, 454, 455, -1,
 455, 456, 468, -1, 468, 456, 457, -1, 468, 457, 458, -1,
 458, 459, 468, -1, 468, 459, 460, -1, 468, 460, 461, -1,
 461, 462, 468, -1, 468, 462, 463, -1, 468, 463, 464, -1,
 626, 625, 629, -1, 629, 643, 626, -1, 626, 643, 651, -1,
 626, 651, 655, -1, 655, 675, 626, -1, 626, 675, 677, -1,
 626, 677, 679, -1, 466, 467, 468, -1, 468, 467, 487, -1,
 468, 487, 488, -1, 488, 487, 511, -1, 488, 511, 512, -1,
 512, 511, 525, -1, 512, 525, 526, -1, 526, 525, 539, -1,
 526, 539, 540, -1, 540, 539, 553, -1, 540, 553, 554, -1,
 554, 553, 567, -1, 554, 567, 568, -1, 568, 567, 581, -1,
 568, 581, 582, -1, 582, 581, 605, -1, 582, 605, 606, -1,
 606, 605, 607, -1, 606, 607, 626, -1, 626, 607, 623, -1,
 626, 623, 625, -1, 33, 1, 7, -1, 33, 7, 55, -1,
 117, 125, 131, -1, 131, 125, 139, -1, 131, 139, 145, -1,
 145, 139, 153, -1, 145, 153, 159, -1, 159, 153, 183, -1,
 159, 183, 193, -1, 193, 183, 223, -1, 193, 223, 209, -1,
 209, 223, 240, -1, 209, 240, 217, -1, 217, 240, 252, -1,
 55, 7, 75, -1, 75, 7, 65, -1, 75, 65, 89, -1,
 89, 65, 83, -1, 89, 83, 103, -1, 103, 83, 97, -1,
 103, 97, 117, -1, 117, 97, 111, -1, 117, 111, 125, -1,
 253, 252, 240, -1, 63, 64, 65, -1, 65, 64, 67, -1,
 65, 67, 83, -1, 7, 10, 65, -1, 65, 10, 15, -1,
 15, 17, 65, -1, 65, 17, 22, -1, 65, 22, 25, -1,
 25, 41, 65, -1, 65, 41, 45, -1, 65, 45, 63, -1,
 253, 240, 251, -1, 242, 243, 240, -1, 240, 243, 244, -1,
 240, 244, 245, -1, 245, 246, 240, -1, 240, 246, 247, -1,
 240, 247, 248, -1, 248, 249, 240, -1, 240, 249, 250, -1,
 240, 250, 251, -1, 67, 82, 83, -1, 83, 82, 96, -1,
 83, 96, 97, -1, 97, 96, 110, -1, 97, 110, 111, -1,
 111, 110, 124, -1, 111, 124, 125, -1, 125, 124, 138, -1,
 125, 138, 139, -1, 139, 138, 152, -1, 139, 152, 153, -1,
 153, 152, 182, -1, 153, 182, 183, -1, 183, 182, 222, -1,
 183, 222, 223, -1, 223, 222, 239, -1, 223, 239, 240, -1,
 240, 239, 241, -1, 240, 241, 242, -1, 4, 36, 6, -1,
 6, 36, 58, -1, 220, 237, 212, -1, 212, 237, 224, -1,
 212, 224, 196, -1, 196, 224, 214, -1, 196, 214, 162, -1,
 162, 214, 174, -1, 162, 174, 148, -1, 148, 174, 150, -1,
 148, 150, 134, -1, 134, 150, 136, -1, 134, 136, 120, -1,
 120, 136, 122, -1, 120, 122, 106, -1, 106, 122, 108, -1,
 106, 108, 92, -1, 92, 108, 94, -1, 92, 94, 78, -1,
 78, 94, 80, -1, 78, 80, 58, -1, 58, 80, 48, -1,
 58, 48, 6, -1, 11, 6, 48, -1, 227, 226, 224, -1,
 227, 224, 228, -1, 224, 237, 238, -1, 238, 236, 224, -1,
 224, 236, 235, -1, 224, 235, 234, -1, 234, 233, 224, -1,
 224, 233, 232, -1, 224, 232, 231, -1, 231, 230, 224, -1,
 224, 230, 229, -1, 224, 229, 228, -1, 48, 49, 44, -1,
 44, 40, 48, -1, 48, 40, 24, -1, 48, 24, 23, -1,
 23, 16, 48, -1, 48, 16, 14, -1, 48, 14, 11, -1,
 226, 225, 224, -1, 224, 225, 215, -1, 224, 215, 214, -1,
 214, 215, 175, -1, 214, 175, 174, -1, 174, 175, 151, -1,
 174, 151, 150, -1, 150, 151, 137, -1, 150, 137, 136, -1,
 136, 137, 123, -1, 136, 123, 122, -1, 122, 123, 109, -1,
 122, 109, 108, -1, 108, 109, 95, -1, 108, 95, 94, -1,
 94, 95, 81, -1, 94, 81, 80, -1, 80, 81, 66, -1,
 80, 66, 48, -1, 48, 66, 62, -1, 48, 62, 49, -1,
 481, 474, 470, -1, 662, 674, 673, -1, 673, 661, 662, -1,
 662, 661, 637, -1, 662, 637, 638, -1, 638, 637, 613, -1,
 638, 613, 614, -1, 614, 613, 599, -1, 614, 599, 600, -1,
 600, 599, 587, -1, 600, 587, 588, -1, 588, 587, 573, -1,
 588, 573, 574, -1, 574, 573, 559, -1, 574, 559, 560, -1,
 560, 559, 545, -1, 560, 545, 546, -1, 546, 545, 531, -1,
 546, 531, 532, -1, 532, 531, 517, -1, 532, 517, 518, -1,
 518, 517, 505, -1, 518, 505, 506, -1, 506, 505, 493, -1,
 506, 493, 494, -1, 494, 493, 481, -1, 494, 481, 482, -1,
 482, 481, 470, -1, 673, 682, 661, -1, 661, 682, 637, -1,
 637, 682, 613, -1, 613, 682, 621, -1, 613, 621, 599, -1,
 599, 621, 593, -1, 599, 593, 587, -1, 587, 593, 579, -1,
 587, 579, 573, -1, 573, 579, 565, -1, 573, 565, 559, -1,
 559, 565, 551, -1, 559, 551, 545, -1, 545, 551, 537, -1,
 545, 537, 531, -1, 531, 537, 523, -1, 531, 523, 517, -1,
 517, 523, 499, -1, 517, 499, 505, -1, 505, 499, 475, -1,
 505, 475, 493, -1, 493, 475, 452, -1, 493, 452, 481, -1,
 481, 452, 439, -1, 481, 439, 474, -1, 440, 439, 452, -1,
 440, 452, 441, -1, 450, 449, 452, -1, 452, 449, 448, -1,
 452, 448, 447, -1, 447, 446, 452, -1, 452, 446, 445, -1,
 452, 445, 444, -1, 444, 443, 452, -1, 452, 443, 442, -1,
 452, 442, 441, -1, 624, 622, 621, -1, 621, 622, 608, -1,
 621, 608, 593, -1, 682, 681, 621, -1, 621, 681, 678, -1,
 678, 676, 621, -1, 621, 676, 656, -1, 621, 656, 652, -1,
 652, 644, 621, -1, 621, 644, 630, -1, 621, 630, 624, -1,
 608, 594, 593, -1, 593, 594, 580, -1, 593, 580, 579, -1,
 579, 580, 566, -1, 579, 566, 565, -1, 565, 566, 552, -1,
 565, 552, 551, -1, 551, 552, 538, -1, 551, 538, 537, -1,
 537, 538, 524, -1, 537, 524, 523, -1, 523, 524, 500, -1,
 523, 500, 499, -1, 499, 500, 476, -1, 499, 476, 475, -1,
 475, 476, 453, -1, 475, 453, 452, -1, 452, 453, 451, -1,
 452, 451, 450, -1, 3, 2, 34, -1, 3, 34, 35, -1,
 35, 34, 56, -1, 35, 56, 57, -1, 57, 56, 76, -1,
 57, 76, 77, -1, 77, 76, 90, -1, 77, 90, 91, -1,
 91, 90, 104, -1, 91, 104, 105, -1, 105, 104, 118, -1,
 105, 118, 119, -1, 119, 118, 132, -1, 119, 132, 133, -1,
 133, 132, 146, -1, 133, 146, 147, -1, 147, 146, 160, -1,
 147, 160, 161, -1, 161, 160, 194, -1, 161, 194, 195, -1,
 195, 194, 210, -1, 195, 210, 211, -1, 211, 210, 218, -1,
 211, 218, 219, -1, 91, 195, 211, -1, 142, 91, 156, -1,
 156, 91, 190, -1, 142, 128, 91, -1, 91, 128, 114, -1,
 91, 114, 100, -1, 211, 219, 91, -1, 91, 219, 206, -1,
 91, 206, 190, -1, 100, 86, 91, -1, 91, 86, 72, -1,
 91, 72, 77, -1, 77, 72, 57, -1, 119, 133, 105, -1,
 105, 133, 147, -1, 105, 147, 91, -1, 91, 147, 161, -1,
 91, 161, 195, -1, 72, 52, 57, -1, 57, 52, 30, -1,
 57, 30, 35, -1, 35, 30, 3, -1, 76, 71, 90, -1,
 90, 71, 85, -1, 90, 85, 99, -1, 141, 155, 90, -1,
 90, 155, 189, -1, 90, 189, 205, -1, 34, 2, 29, -1,
 99, 113, 90, -1, 90, 113, 127, -1, 90, 127, 141, -1,
 205, 218, 90, -1, 90, 218, 210, -1, 90, 210, 194, -1,
 76, 56, 71, -1, 71, 56, 34, -1, 71, 34, 51, -1,
 51, 34, 29, -1, 194, 160, 90, -1, 90, 160, 146, -1,
 90, 146, 104, -1, 104, 146, 132, -1, 104, 132, 118, -1,
 504, 660, 492, -1, 492, 660, 480, -1, 660, 672, 480, -1,
 480, 672, 667, -1, 480, 667, 473, -1, 473, 667, 649, -1,
 473, 649, 485, -1, 485, 649, 641, -1, 485, 641, 497, -1,
 544, 558, 530, -1, 530, 558, 572, -1, 530, 572, 516, -1,
 516, 572, 504, -1, 504, 572, 586, -1, 504, 586, 598, -1,
 598, 612, 504, -1, 504, 612, 636, -1, 504, 636, 660, -1,
 577, 563, 641, -1, 641, 563, 549, -1, 641, 549, 535, -1,
 617, 603, 641, -1, 641, 603, 591, -1, 641, 591, 577, -1,
 535, 521, 641, -1, 641, 521, 509, -1, 641, 509, 497, -1,
 671, 659, 479, -1, 479, 659, 635, -1, 479, 635, 491, -1,
 671, 479, 666, -1, 666, 479, 472, -1, 666, 472, 648, -1,
 648, 472, 484, -1, 648, 484, 640, -1, 640, 484, 496, -1,
 640, 496, 508, -1, 576, 640, 562, -1, 562, 640, 548, -1,
 491, 635, 503, -1, 503, 635, 611, -1, 503, 611, 597, -1,
 543, 529, 557, -1, 557, 529, 571, -1, 597, 585, 503, -1,
 503, 585, 571, -1, 503, 571, 515, -1, 515, 571, 529, -1,
 508, 520, 640, -1, 640, 520, 534, -1, 640, 534, 548, -1,
 576, 590, 640, -1, 640, 590, 602, -1, 640, 602, 616, -1,
 659, 671, 672, -1, 480, 473, 472, -1, 472, 479, 480, -1,
 480, 479, 491, -1, 480, 491, 492, -1, 492, 491, 503, -1,
 492, 503, 504, -1, 504, 503, 515, -1, 504, 515, 516, -1,
 516, 515, 529, -1, 516, 529, 530, -1, 530, 529, 543, -1,
 530, 543, 544, -1, 544, 543, 557, -1, 544, 557, 558, -1,
 558, 557, 571, -1, 558, 571, 572, -1, 572, 571, 585, -1,
 572, 585, 586, -1, 586, 585, 597, -1, 586, 597, 598, -1,
 598, 597, 611, -1, 598, 611, 612, -1, 612, 611, 635, -1,
 612, 635, 636, -1, 636, 635, 659, -1, 636, 659, 660, -1,
 660, 659, 672, -1, 335, 334, 306, -1, 335, 306, 307, -1,
 307, 306, 288, -1, 307, 288, 289, -1, 289, 288, 270, -1,
 289, 270, 271, -1, 271, 270, 254, -1, 271, 254, 255, -1,
 323, 337, 339, -1, 323, 339, 325, -1, 325, 339, 341, -1,
 325, 341, 327, -1, 327, 341, 343, -1, 327, 343, 329, -1,
 329, 343, 345, -1, 329, 345, 331, -1, 331, 345, 347, -1,
 331, 347, 333, -1, 333, 347, 349, -1, 333, 349, 335, -1,
 321, 323, 325, -1, 311, 321, 319, -1, 303, 311, 305, -1,
 295, 303, 285, -1, 285, 303, 297, -1, 285, 297, 283, -1,
 283, 297, 279, -1, 279, 297, 287, -1, 279, 287, 275, -1,
 275, 287, 269, -1, 269, 287, 281, -1, 269, 281, 267, -1,
 267, 281, 265, -1, 265, 281, 277, -1, 265, 277, 263, -1,
 263, 277, 261, -1, 261, 277, 273, -1, 261, 273, 259, -1,
 259, 273, 257, -1, 257, 273, 271, -1, 257, 271, 255, -1,
 303, 305, 297, -1, 297, 305, 301, -1, 297, 301, 287, -1,
 287, 301, 299, -1, 287, 299, 281, -1, 281, 299, 293, -1,
 281, 293, 277, -1, 277, 293, 291, -1, 277, 291, 273, -1,
 273, 291, 289, -1, 273, 289, 271, -1, 311, 319, 305, -1,
 305, 319, 317, -1, 305, 317, 301, -1, 301, 317, 315, -1,
 301, 315, 299, -1, 299, 315, 313, -1, 299, 313, 293, -1,
 293, 313, 309, -1, 293, 309, 291, -1, 291, 309, 307, -1,
 291, 307, 289, -1, 321, 325, 319, -1, 319, 325, 327, -1,
 319, 327, 317, -1, 317, 327, 329, -1, 317, 329, 315, -1,
 315, 329, 331, -1, 315, 331, 313, -1, 313, 331, 333, -1,
 313, 333, 309, -1, 309, 333, 335, -1, 309, 335, 307, -1,
 295, 285, 203, -1, 203, 285, 200, -1, 200, 285, 199, -1,
 199, 285, 283, -1, 199, 283, 186, -1, 186, 283, 279, -1,
 186, 279, 185, -1, 185, 279, 275, -1, 185, 275, 180, -1,
 180, 275, 269, -1, 180, 269, 179, -1, 179, 269, 267, -1,
 179, 267, 177, -1, 177, 267, 265, -1, 177, 265, 173, -1,
 173, 265, 263, -1, 173, 263, 171, -1, 171, 263, 261, -1,
 171, 261, 169, -1, 169, 261, 259, -1, 169, 259, 167, -1,
 259, 257, 167, -1, 167, 257, 255, -1, 167, 255, 165, -1,
 68, 67, 60, -1, 60, 67, 64, -1, 41, 46, 45, -1,
 45, 46, 60, -1, 45, 60, 63, -1, 63, 60, 64, -1,
 20, 26, 25, -1, 25, 26, 38, -1, 25, 38, 41, -1,
 41, 38, 42, -1, 41, 42, 46, -1, 7, 8, 12, -1,
 25, 22, 20, -1, 20, 22, 17, -1, 20, 17, 18, -1,
 18, 17, 15, -1, 18, 15, 12, -1, 12, 15, 10, -1,
 12, 10, 7, -1, 336, 322, 324, -1, 336, 324, 338, -1,
 338, 324, 326, -1, 338, 326, 340, -1, 340, 326, 328, -1,
 340, 328, 342, -1, 342, 328, 330, -1, 342, 330, 344, -1,
 344, 330, 332, -1, 344, 332, 346, -1, 346, 332, 334, -1,
 346, 334, 348, -1, 202, 68, 201, -1, 201, 68, 60, -1,
 46, 187, 60, -1, 60, 187, 198, -1, 60, 198, 201, -1,
 42, 181, 46, -1, 46, 181, 184, -1, 46, 184, 187, -1,
 8, 164, 12, -1, 12, 164, 166, -1, 12, 166, 18, -1,
 18, 166, 168, -1, 18, 168, 20, -1, 20, 168, 170, -1,
 20, 170, 26, -1, 26, 170, 172, -1, 26, 172, 38, -1,
 38, 172, 176, -1, 38, 176, 42, -1, 42, 176, 178, -1,
 42, 178, 181, -1, 306, 334, 332, -1, 288, 306, 308, -1,
 270, 288, 290, -1, 254, 270, 256, -1, 256, 270, 272, -1,
 256, 272, 258, -1, 258, 272, 260, -1, 260, 272, 276, -1,
 260, 276, 262, -1, 262, 276, 264, -1, 264, 276, 280, -1,
 264, 280, 266, -1, 266, 280, 268, -1, 268, 280, 286, -1,
 268, 286, 274, -1, 274, 286, 278, -1, 278, 286, 296, -1,
 278, 296, 282, -1, 282, 296, 284, -1, 284, 296, 302, -1,
 284, 302, 294, -1, 270, 290, 272, -1, 272, 290, 292, -1,
 272, 292, 276, -1, 276, 292, 298, -1, 276, 298, 280, -1,
 280, 298, 300, -1, 280, 300, 286, -1, 286, 300, 304, -1,
 286, 304, 296, -1, 296, 304, 310, -1, 296, 310, 302, -1,
 288, 308, 290, -1, 290, 308, 312, -1, 290, 312, 292, -1,
 292, 312, 314, -1, 292, 314, 298, -1, 298, 314, 316, -1,
 298, 316, 300, -1, 300, 316, 318, -1, 300, 318, 304, -1,
 304, 318, 320, -1, 304, 320, 310, -1, 306, 332, 308, -1,
 308, 332, 330, -1, 308, 330, 312, -1, 312, 330, 328, -1,
 312, 328, 314, -1, 314, 328, 326, -1, 314, 326, 316, -1,
 316, 326, 324, -1, 316, 324, 318, -1, 318, 324, 322, -1,
 318, 322, 320, -1, 260, 170, 168, -1, 260, 168, 258, -1,
 258, 168, 166, -1, 258, 166, 256, -1, 256, 166, 164, -1,
 256, 164, 254, -1, 170, 260, 172, -1, 172, 260, 262, -1,
 172, 262, 176, -1, 262, 264, 176, -1, 176, 264, 266, -1,
 176, 266, 178, -1, 178, 266, 268, -1, 178, 268, 181, -1,
 181, 268, 274, -1, 181, 274, 184, -1, 184, 274, 278, -1,
 184, 278, 187, -1, 187, 278, 198, -1, 198, 278, 282, -1,
 198, 282, 201, -1, 282, 284, 201, -1, 201, 284, 294, -1,
 201, 294, 202, -1, 687, 689, 680, -1, 680, 679, 687, -1,
 687, 679, 677, -1, 687, 677, 685, -1, 685, 677, 675, -1,
 685, 675, 683, -1, 683, 675, 655, -1, 683, 655, 663, -1,
 663, 655, 651, -1, 663, 651, 653, -1, 653, 651, 645, -1,
 651, 643, 645, -1, 645, 643, 629, -1, 645, 629, 631, -1,
 631, 629, 625, -1, 631, 625, 627, -1, 625, 623, 627, -1,
 627, 623, 607, -1, 627, 607, 619, -1, 619, 416, 418, -1,
 619, 418, 627, -1, 418, 419, 627, -1, 627, 419, 421, -1,
 627, 421, 631, -1, 421, 422, 631, -1, 631, 422, 424, -1,
 631, 424, 645, -1, 424, 425, 645, -1, 645, 425, 427, -1,
 645, 427, 653, -1, 653, 427, 429, -1, 437, 689, 435, -1,
 435, 689, 687, -1, 435, 687, 433, -1, 433, 687, 685, -1,
 433, 685, 431, -1, 431, 685, 683, -1, 431, 683, 429, -1,
 429, 683, 663, -1, 429, 663, 653, -1, 454, 252, 455, -1,
 455, 252, 253, -1, 455, 253, 456, -1, 456, 253, 251, -1,
 456, 251, 457, -1, 457, 251, 458, -1, 251, 250, 458, -1,
 458, 250, 249, -1, 458, 249, 459, -1, 459, 249, 460, -1,
 249, 248, 460, -1, 460, 248, 247, -1, 460, 247, 461, -1,
 461, 247, 462, -1, 247, 246, 462, -1, 462, 246, 245, -1,
 462, 245, 463, -1, 463, 245, 464, -1, 245, 244, 464, -1,
 464, 244, 243, -1, 464, 243, 465, -1, 465, 243, 466, -1,
 466, 243, 242, -1, 466, 242, 241, -1, 69, 203, 200, -1,
 69, 200, 61, -1, 200, 199, 61, -1, 61, 199, 186, -1,
 61, 186, 47, -1, 186, 185, 47, -1, 47, 185, 180, -1,
 47, 180, 43, -1, 180, 179, 43, -1, 43, 179, 177, -1,
 43, 177, 39, -1, 39, 177, 173, -1, 39, 173, 27, -1,
 27, 173, 171, -1, 27, 171, 21, -1, 21, 171, 169, -1,
 165, 9, 167, -1, 167, 9, 13, -1, 167, 13, 169, -1,
 169, 13, 19, -1, 169, 19, 21, -1, 13, 9, 6, -1,
 6, 11, 13, -1, 13, 11, 14, -1, 13, 14, 19, -1,
 19, 14, 16, -1, 19, 16, 21, -1, 21, 16, 23, -1,
 21, 23, 27, -1, 27, 23, 24, -1, 27, 24, 39, -1,
 39, 24, 43, -1, 24, 40, 43, -1, 43, 40, 44, -1,
 43, 44, 47, -1, 47, 44, 49, -1, 47, 49, 61, -1,
 49, 62, 61, -1, 61, 62, 66, -1, 61, 66, 69, -1,
 690, 438, 688, -1, 688, 438, 436, -1, 688, 436, 686, -1,
 686, 436, 434, -1, 686, 434, 684, -1, 684, 434, 432, -1,
 684, 432, 664, -1, 664, 432, 430, -1, 664, 430, 654, -1,
 654, 430, 428, -1, 654, 428, 646, -1, 428, 426, 646, -1,
 646, 426, 423, -1, 646, 423, 632, -1, 632, 423, 420, -1,
 632, 420, 628, -1, 628, 420, 417, -1, 628, 417, 620, -1,
 682, 690, 688, -1, 652, 656, 684, -1, 684, 656, 676, -1,
 684, 676, 686, -1, 686, 676, 678, -1, 686, 678, 688, -1,
 688, 678, 681, -1, 688, 681, 682, -1, 684, 664, 652, -1,
 652, 664, 654, -1, 652, 654, 644, -1, 654, 646, 644, -1,
 644, 646, 632, -1, 644, 632, 630, -1, 630, 632, 628, -1,
 630, 628, 624, -1, 620, 608, 628, -1, 628, 608, 622, -1,
 628, 622, 624, -1, 450, 451, 226, -1, 450, 226, 449, -1,
 226, 227, 449, -1, 449, 227, 228, -1, 449, 228, 448, -1,
 448, 228, 447, -1, 228, 229, 447, -1, 447, 229, 230, -1,
 447, 230, 446, -1, 446, 230, 445, -1, 230, 231, 445, -1,
 445, 231, 232, -1, 445, 232, 444, -1, 444, 232, 443, -1,
 232, 233, 443, -1, 443, 233, 234, -1, 443, 234, 442, -1,
 442, 234, 441, -1, 237, 439, 238, -1, 238, 439, 440, -1,
 238, 440, 236, -1, 236, 440, 441, -1, 236, 441, 235, -1,
 235, 441, 234, -1, 438, 415, 436, -1, 436, 415, 412, -1,
 436, 412, 434, -1, 434, 412, 432, -1, 432, 412, 409, -1,
 432, 409, 430, -1, 430, 409, 428, -1, 428, 409, 400, -1,
 428, 400, 426, -1, 426, 400, 389, -1, 426, 389, 423, -1,
 423, 389, 372, -1, 423, 372, 420, -1, 420, 372, 337, -1,
 420, 337, 417, -1, 337, 351, 339, -1, 339, 351, 353, -1,
 339, 353, 341, -1, 341, 353, 357, -1, 341, 357, 343, -1,
 343, 357, 361, -1, 343, 361, 345, -1, 345, 361, 366, -1,
 345, 366, 347, -1, 347, 366, 370, -1, 347, 370, 349, -1,
 337, 355, 351, -1, 351, 355, 368, -1, 351, 368, 353, -1,
 353, 368, 374, -1, 353, 374, 357, -1, 357, 374, 378, -1,
 357, 378, 361, -1, 361, 378, 383, -1, 361, 383, 366, -1,
 366, 383, 385, -1, 366, 385, 370, -1, 337, 359, 355, -1,
 355, 359, 376, -1, 355, 376, 368, -1, 368, 376, 387, -1,
 368, 387, 374, -1, 374, 387, 391, -1, 374, 391, 378, -1,
 378, 391, 396, -1, 378, 396, 383, -1, 383, 396, 398, -1,
 383, 398, 385, -1, 337, 364, 359, -1, 359, 364, 380, -1,
 359, 380, 376, -1, 376, 380, 393, -1, 376, 393, 387, -1,
 387, 393, 402, -1, 387, 402, 391, -1, 391, 402, 405, -1,
 391, 405, 396, -1, 396, 405, 407, -1, 396, 407, 398, -1,
 337, 372, 364, -1, 364, 372, 389, -1, 364, 389, 380, -1,
 380, 389, 400, -1, 380, 400, 393, -1, 393, 400, 409, -1,
 393, 409, 402, -1, 402, 409, 412, -1, 402, 412, 405, -1,
 405, 412, 415, -1, 405, 415, 407, -1, 415, 414, 406, -1,
 415, 406, 407, -1, 407, 406, 397, -1, 407, 397, 398, -1,
 398, 397, 384, -1, 398, 384, 385, -1, 385, 384, 369, -1,
 385, 369, 370, -1, 370, 369, 348, -1, 370, 348, 349, -1,
 395, 404, 401, -1, 365, 346, 348, -1, 414, 413, 406, -1,
 406, 413, 404, -1, 406, 404, 397, -1, 397, 404, 395, -1,
 397, 395, 384, -1, 360, 344, 346, -1, 356, 342, 344, -1,
 348, 369, 365, -1, 365, 369, 382, -1, 365, 382, 377, -1,
 377, 382, 390, -1, 377, 390, 386, -1, 386, 390, 392, -1,
 386, 392, 379, -1, 413, 411, 404, -1, 404, 411, 410, -1,
 404, 410, 401, -1, 401, 410, 408, -1, 401, 408, 403, -1,
 369, 384, 382, -1, 382, 384, 395, -1, 382, 395, 390, -1,
 390, 395, 401, -1, 390, 401, 392, -1, 392, 401, 403, -1,
 352, 340, 342, -1, 336, 338, 350, -1, 350, 338, 340, -1,
 340, 352, 350, -1, 350, 352, 354, -1, 350, 354, 336, -1,
 342, 356, 352, -1, 352, 356, 367, -1, 352, 367, 354, -1,
 354, 367, 358, -1, 354, 358, 336, -1, 344, 360, 356, -1,
 356, 360, 373, -1, 356, 373, 367, -1, 367, 373, 375, -1,
 367, 375, 358, -1, 358, 375, 363, -1, 358, 363, 336, -1,
 403, 399, 392, -1, 392, 399, 394, -1, 392, 394, 379, -1,
 379, 394, 388, -1, 379, 388, 381, -1, 346, 365, 360, -1,
 360, 365, 377, -1, 360, 377, 373, -1, 373, 377, 386, -1,
 373, 386, 375, -1, 375, 386, 379, -1, 375, 379, 363, -1,
 363, 379, 381, -1, 363, 381, 371, -1, 371, 362, 363, -1,
 363, 362, 336, -1, 416, 336, 362, -1, 421, 419, 362, -1,
 362, 419, 418, -1, 362, 418, 416, -1, 362, 371, 421, -1,
 421, 371, 381, -1, 421, 381, 422, -1, 422, 381, 388, -1,
 422, 388, 424, -1, 424, 388, 394, -1, 424, 394, 425, -1,
 425, 394, 399, -1, 425, 399, 427, -1, 427, 399, 403, -1,
 427, 403, 429, -1, 429, 403, 408, -1, 429, 408, 431, -1,
 431, 408, 410, -1, 431, 410, 433, -1, 433, 410, 411, -1,
 433, 411, 435, -1, 411, 413, 435, -1, 435, 413, 414, -1,
 435, 414, 437, -1
]
materialIndex [
 1, 1, 1, 1, 1, 1, 1, 1, 1, 1, 1, 1, 1, 1, 1, 1, 1, 1, 1, 1, 1, 1, 1, 1, 1, 1, 1, 2, 2, 0, 0, 0,
 3, 3, 3, 3, 3, 3, 3, 3, 3, 3, 3, 3, 3, 3, 3, 3, 3, 3, 3, 3, 3, 3, 3, 3, 3, 3, 3, 3, 3, 3, 3, 3, 3, 3, 3, 3, 3, 3, 3, 3, 3, 3, 3, 3, 3, 3, 3, 3, 3, 3, 0, 0, 0, 0, 0, 0, 0, 0, 0, 0, 0, 0, 0, 0, 0, 0, 0, 0, 0, 0, 0, 0, 0, 0, 0, 0, 0, 0, 0, 0, 0, 0, 0, 0, 0, 0, 0, 0, 0, 0,
 0, 0, 0, 0, 0, 0, 0, 0, 0, 0, 0, 0, 4, 4, 4, 4, 4, 4, 4, 4, 4, 4, 4, 4, 4, 4, 4, 4, 4, 4, 4, 4, 4, 4, 4, 4, 4, 4, 4,
 0, 0, 0, 0, 0, 0, 0, 0, 0, 0, 0, 0, 0, 0, 0, 0, 0, 0, 0, 0, 0, 0, 0, 0, 0, 0, 0, 0, 0, 0, 5, 5, 5, 5, 5, 5, 5, 5, 5, 5, 5, 5, 5, 5, 5, 5, 5, 5, 5, 5, 5, 5, 6, 6, 6, 6, 6, 6, 6, 6, 6, 6, 6, 6, 6, 6, 6, 6, 6, 6, 6, 6, 6, 6, 6, 6, 6, 6, 6, 6, 6, 6, 6, 6, 6, 6, 6, 6, 6, 6, 6, 6, 6, 6, 6, 6, 6, 6, 6, 6, 6, 6,
 7, 7, 7, 7, 7, 7, 7, 7, 7, 7, 7, 7, 7, 7, 7, 7, 7, 7, 7, 7, 7, 7, 7, 7, 7, 7, 7, 8, 8, 0, 0, 0,
 0, 0, 9, 9, 0, 0,
 10, 10, 0, 0, 11, 11, 11, 11, 11, 11, 11, 11, 11, 11, 11, 11, 11, 11, 11, 11, 11, 11, 11, 11, 11, 11,
 12, 12, 12, 12, 12, 12, 12, 12, 12, 12, 12, 12, 12, 12, 12, 12, 12, 12, 12, 12, 12, 12, 12, 12, 12, 12, 12, 13, 13, 13, 13, 13, 13, 13, 13, 13, 13, 13, 13, 13, 13, 13, 13, 13, 13, 13, 13, 13, 13, 13, 13, 13, 13, 13, 13, 0, 0, 0, 0, 0, 0, 0, 0, 0, 0, 0, 0, 0, 0, 0, 0, 0, 0, 0, 0, 0, 0, 0, 0, 0,
 0, 0, 0, 0, 0, 0, 0, 0, 0, 0, 0, 0, 0, 0, 0, 0, 0, 0, 0, 0, 0, 0, 0, 0, 0, 0, 0, 0, 0, 0, 0, 0, 0, 0, 0, 0, 0, 0, 0, 0, 0, 0, 0, 0, 0, 0, 0, 0, 0, 0, 0, 0, 0, 0, 0, 0, 0, 0, 0, 0, 0, 0, 0, 0, 0, 0, 0, 0, 0, 0, 0, 0, 0, 0, 0, 0, 0, 0, 0, 0, 0, 0, 0, 0, 0, 0, 0, 0, 0, 0, 0, 0, 0, 0, 0, 0, 0, 0, 0, 0, 0, 0, 0, 0, 0,
 0, 0, 0, 0, 0, 0, 0, 0, 0, 0, 0, 0, 0, 0, 0, 0, 0, 0, 0, 0, 0, 0, 0, 0, 0, 0, 0, 0, 0, 0, 0, 0, 0, 0, 0, 0, 0, 0, 0, 0, 0, 0, 0, 0, 0, 0, 0, 0, 0, 0, 0, 0, 0, 0, 0, 0, 0, 0, 0, 0, 0, 0, 0, 0, 14, 14, 14, 14, 14, 14, 14, 14, 14, 14, 14, 14, 14, 14, 14, 14, 14, 14, 14, 14, 14, 14, 14, 14, 14, 14, 14, 14,
 0, 0, 0, 0, 0, 0, 0, 0, 0, 0, 0, 0, 0, 0, 0, 0, 0, 0, 0, 0, 0, 0, 0, 0, 0, 0, 0, 0, 0, 0, 0, 0, 0, 0, 0, 0, 0, 0, 0, 0, 0, 0, 0, 0, 0, 0, 0, 0, 0, 0, 0, 0, 0, 0, 0, 0, 0, 0, 0, 0, 0, 0, 0, 0, 0, 0, 0, 0, 0, 0, 0, 0, 0, 0, 0, 0, 0, 0, 0, 0, 0, 0, 0, 0, 0, 0, 0, 0, 0, 0,
 15, 15, 15, 15, 15, 15, 15, 15, 15, 15, 15, 15, 15, 15, 15, 15, 15, 15, 15, 15, 15, 15, 16, 16, 16, 16, 16, 16, 16, 16, 16, 16, 16, 16, 16, 16, 16, 16, 16, 16, 16, 16, 16, 16, 17, 17, 17, 17, 17, 17, 17, 17, 17, 17, 17, 17, 17, 17, 17, 17, 17, 17, 17, 17, 17, 17, 17, 17, 17, 17, 17,
 18, 18, 18, 18, 18, 18, 18, 18, 18, 18, 18, 18, 18, 18, 18, 18, 18, 18, 18, 18, 18, 18, 18, 18, 18, 18, 18, 0, 0, 0, 0, 0, 0, 0, 0, 0, 0, 0, 0, 0, 0, 0, 0, 0, 0, 0, 0, 0, 0, 0, 0, 0, 0, 0, 0, 0, 0, 0, 0, 0, 0, 0, 0,
 0, 0, 0, 0, 0, 0, 0, 0, 0, 0, 0, 0, 0, 0, 0, 0, 0, 0, 0, 0, 0, 0, 0, 0, 0, 0, 0, 0, 0, 0, 0, 0, 0, 0, 0, 0, 0, 0, 0, 0, 0, 0, 0, 0, 0, 0, 0, 0, 0, 0, 0, 0, 0, 0, 0, 0, 0, 0, 0, 0, 0, 0, 0, 0, 0, 0, 0, 0, 0, 0, 0, 0, 0, 0, 0, 0, 0, 0, 0, 0, 0, 0, 0, 0, 0, 0, 0, 0, 0, 0,
 0, 0, 0, 0, 0, 0, 0, 0, 0, 0, 0, 0, 0, 0, 0, 0, 0, 0, 0, 0, 0, 0, 0, 0, 0, 0, 0, 0, 0, 0, 0, 0, 0, 0, 0, 0, 0, 0, 0, 0, 0, 0, 0, 0, 0, 0, 0, 0, 0, 0, 0, 0,
 0, 0, 0, 0, 0, 0, 0, 0, 0, 0, 0, 0, 0, 0, 0, 0, 0, 0, 0, 0, 0, 0, 0, 0, 0, 0, 0, 0, 0, 0, 0, 0, 0, 0, 0, 0, 0, 0, 0, 0, 0, 0, 0, 0, 0, 0, 0, 0, 0, 0, 0, 0, 0, 0, 0, 0, 0, 0, 0, 0, 0, 0, 0, 0, 0, 0, 0, 0, 0, 0, 0, 0, 0, 0, 0, 0, 0, 0, 0, 0, 0, 0, 0, 0, 0, 0, 0, 0, 0, 0, 0, 0, 0, 0, 0, 0, 0,
 0, 0, 0, 0, 0, 0, 0, 0, 0, 0, 0, 0, 0, 0, 0, 0, 0, 0, 0, 0, 0, 0, 0, 0, 0, 0, 0, 0, 0, 0, 0, 0, 0, 0, 0, 0, 0, 0, 0, 0, 0, 0, 0, 0, 0, 0, 0, 0, 0, 0, 0, 0, 0, 0, 0, 0, 0, 0, 0, 0, 0, 0, 0, 0, 0, 0,
 0, 0, 0, 0, 0, 0, 0, 0, 0, 0, 0, 0, 0, 0, 0, 0, 0, 0, 0, 0, 0, 0, 0, 0, 0, 0, 0, 0, 0, 0, 0, 0, 0, 0, 0, 0, 0, 0, 0, 0, 0, 0, 0, 0, 0, 0, 0, 0, 0, 0, 0, 0, 0, 0, 0, 0,
 0, 0, 0, 0, 0, 0, 0, 0, 0, 0, 0, 0, 0, 0, 0, 0, 0, 0, 0, 0, 0, 0, 0, 0, 0, 0, 0, 0, 0, 0, 0, 0, 0, 0, 0, 0, 0, 0, 0, 0, 0, 0, 0, 0, 0, 0, 0, 0, 0, 0, 0, 0, 0, 0, 0, 0, 0, 0, 0, 0, 0, 0, 0, 0, 0, 0, 0, 0, 0, 0, 0, 0, 0, 0, 0, 0, 0, 0, 0, 0, 0, 0, 0, 0, 0, 0, 0, 0, 0, 0, 0, 0, 0, 0,
 0, 0, 0, 0, 0, 0, 0, 0, 0, 0, 0, 0, 0, 0, 0, 0, 0, 0, 0, 0, 0, 0, 0, 0, 0, 0, 0, 0, 0, 0, 0, 0, 0, 0, 0, 0, 0, 0, 0, 0, 0, 0, 0, 0, 0, 0, 0, 0, 0, 0, 0, 0, 0, 0, 0, 0, 0, 0, 0, 0, 0, 0, 0, 0, 0, 0, 0, 0, 0, 0, 0, 0, 0, 0, 0, 0, 0, 0, 0, 0, 0, 0, 0, 0, 0, 0, 0, 0, 0, 0, 0, 0, 0, 0, 0,
]
}
}
