# 
# Wavefront material file
# Converted by 3D Exploration 1.833
# XDimension Software, LLC
# http://www.xdsoft.com/explorer/
# 
newmtl Material__1
	 Ka 0.101961 0.101961 0.101961
	 Kd 0.101961 0.101961 0.101961
	 Ks 0.040784 0.040784 0.040784
	 illum 2
	 Ns 51.2
newmtl Material__2
	 Ka 0.298039 0.298039 0.298039
	 Kd 0.298039 0.298039 0.298039
	 Ks 0.14902 0.14902 0.14902
	 illum 2
	 Ns 51.2
